…
Now we can use another function `pt_split_multi` that can handle
dataframe as argument. It is a recursive version of function `pt_split`.

``` r
df <- 
conbini |>
  pt_cell() |>
  purrr::flatten_chr() |>
  pt_split_multi(index = idx)
df
#> # A tibble: 204 × 15
#>    V1    V2    V3    V4    V5    V6    V7    V8    V9    V10   V11   V12   V13  
#>    <chr> <chr> <chr> <chr> <chr> <chr> <chr> <chr> <chr> <chr> <chr> <chr> <chr>
#>  1 1月   561,… 1.6%  513,… -1.7% 38,8… 2.1%  908,… 2.4%  838,… -0.6% 618.3 -0.8%
#>  2 2月   523,… -1.4% 477,… -2.5% 39,2… 2.2%  861,… -1.5% 791,… -3.7% 607.5 0.1% 
#>  3 3月   601,… 2.2%  549,… -1.4% 39,1… 2.3%  985,… 2.7%  905,… -0.5% 610.3 -0.4%
#>  4 4月   592,… 2.4%  541,… -0.9% 39,1… 2.4%  994,… 3.3%  930,… -0.1% 596.1 -0.9%
#>  5 5月   600,… 1.7%  548,… -1.9% 39,2… 2.5%  1,01… 3.6%  934,… 0.2%  590.7 -1.9%
#>  6 6月   601,… 2.5%  548,… -1.3% 39,3… 2.8%  1,03… 3.7%  964,… 0.01% 581.2 -1.2%
#>  7 7月   655,… -1.0% 597,… -4.7% 39,4… 2.8%  1,09… -1.4% 1,02… -4.8% 596.2 0.4% 
#>  8 8月   663,… 2.3%  605,… -1.3% 39,7… 2.8%  1,11… 3.9%  1,02… 0.03% 597.1 -1.6%
#>  9 9月   610,… 3.5%  559,… -0.3% 39,6… 2.7%  1,04… 4.1%  962,… 0.3%  585.0 -0.5%
#> 10 10月  602,… 0.7%  551,… -2.9% 39,7… 2.9%  1,04… 4.3%  961,… 0.7%  577.5 -3.5%
#> # … with 194 more rows, and 2 more variables: V14 <chr>, V15 <chr>
#> # ℹ Use `print(n = ...)` to see more rows, and `colnames()` to see all variable names
```

Then, we may also complain about data type, that all of columns in data
are character but we can easily modify this to use some methods already
exist. Since the example data is essentially numerical and limited in
time period, I packed a method for it that processes required task at
one step.

``` r
df |> pt_conbini()
#> # A tibble: 204 × 16
#>     year month     V2    V3     V4    V5    V6    V7      V8    V9     V10   V11
#>    <int> <dbl>  <dbl> <dbl>  <dbl> <dbl> <dbl> <dbl>   <dbl> <dbl>   <dbl> <dbl>
#>  1  2005     1 561491   1.6 513357  -1.7 38861   2.1  908165   2.4  838523 -0.6 
#>  2  2005     2 523385  -1.4 477521  -2.5 39257   2.2  861472  -1.5  791004 -3.7 
#>  3  2005     3 601531   2.2 549144  -1.4 39118   2.3  985632   2.7  905746 -0.5 
#>  4  2005     4 592949   2.4 541234  -0.9 39170   2.4  994731   3.3  930193 -0.1 
#>  5  2005     5 600660   1.7 548391  -1.9 39229   2.5 1016848   3.6  934089  0.2 
#>  6  2005     6 601371   2.5 548714  -1.3 39357   2.8 1034699   3.7  964136  0.01
#>  7  2005     7 655450  -1   597061  -4.7 39479   2.8 1099469  -1.4 1022282 -4.8 
#>  8  2005     8 663367   2.3 605931  -1.3 39749   2.8 1110943   3.9 1028161  0.03
#>  9  2005     9 610668   3.5 559647  -0.3 39673   2.7 1043858   4.1  962562  0.3 
#> 10  2005    10 602856   0.7 551812  -2.9 39726   2.9 1043864   4.3  961290  0.7 
#> # … with 194 more rows, and 4 more variables: V12 <dbl>, V13 <dbl>, V14 <dbl>,
#> #   V15 <dbl>
#> # ℹ Use `print(n = ...)` to see more rows, and `colnames()` to see all variable names
```
